{
  "stats": {
    "suites": 2,
    "tests": 2,
    "passes": 2,
    "pending": 0,
    "failures": 0,
    "start": "2022-01-12T18:04:35.342Z",
    "end": "2022-01-12T18:04:40.541Z",
    "duration": 5199,
    "testsRegistered": 2,
    "passPercent": 100,
    "pendingPercent": 0,
    "other": 0,
    "hasOther": false,
    "skipped": 0,
    "hasSkipped": false
  },
  "results": [
    {
      "uuid": "954a0770-6bf2-42b7-9eef-e296962da4f0",
      "title": "",
      "fullFile": "",
      "file": "",
      "beforeHooks": [],
      "afterHooks": [],
      "tests": [],
      "suites": [
        {
          "uuid": "172393cc-b95a-4d20-b7ad-e78e50c38a7f",
          "title": "Demo suit",
          "fullFile": "/Users/yoltysheva/Documents/Gitlab/playwright_qaa/specs/demo.spec.js",
          "file": "/specs/demo.spec.js",
          "beforeHooks": [],
          "afterHooks": [],
          "tests": [
            {
              "title": "1 test",
              "fullTitle": "Demo suit 1 test",
              "timedOut": false,
              "duration": 1,
              "state": "passed",
              "speed": "fast",
              "pass": true,
              "fail": false,
              "pending": false,
              "context": null,
              "code": "const a = 1;\nconst b = 2;\nassert.deepEqual(a + b, 3);",
              "err": {},
              "uuid": "11bddae2-13bc-4036-b9c5-68bd4f263260",
              "parentUUID": "172393cc-b95a-4d20-b7ad-e78e50c38a7f",
              "isHook": false,
              "skipped": false
            }
          ],
          "suites": [],
          "passes": [
            "11bddae2-13bc-4036-b9c5-68bd4f263260"
          ],
          "failures": [],
          "pending": [],
          "skipped": [],
          "duration": 1,
          "root": false,
          "rootEmpty": false,
          "_timeout": 50000
        },
        {
          "uuid": "1ec28894-efcc-4dea-9829-44abb59cdfd8",
          "title": "UI Demo suit",
          "fullFile": "/Users/yoltysheva/Documents/Gitlab/playwright_qaa/specs/playwtight.spec.js",
          "file": "/specs/playwtight.spec.js",
          "beforeHooks": [
            {
              "title": "\"before each\" hook in \"UI Demo suit\"",
              "fullTitle": "UI Demo suit \"before each\" hook in \"UI Demo suit\"",
              "timedOut": false,
              "duration": 3117,
              "state": null,
              "speed": null,
              "pass": false,
              "fail": false,
              "pending": false,
              "context": null,
              "code": "page = await (0, _browser.runBrowser)('https://try.vikunja.io/');",
              "err": {},
              "uuid": "3bcbf7fb-93ee-4b76-8fe4-d502143883e6",
              "parentUUID": "1ec28894-efcc-4dea-9829-44abb59cdfd8",
              "isHook": true,
              "skipped": false
            }
          ],
          "afterHooks": [
            {
              "title": "\"after each\" hook in \"UI Demo suit\"",
              "fullTitle": "UI Demo suit \"after each\" hook in \"UI Demo suit\"",
              "timedOut": false,
              "duration": 323,
              "state": null,
              "speed": null,
              "pass": false,
              "fail": false,
              "pending": false,
              "context": null,
              "code": "await (0, _browser.stopBrowser)();",
              "err": {},
              "uuid": "1914d3c5-d758-4182-a985-d133b5ce5925",
              "parentUUID": "1ec28894-efcc-4dea-9829-44abb59cdfd8",
              "isHook": true,
              "skipped": false
            }
          ],
          "tests": [
            {
              "title": "UI test",
              "fullTitle": "UI Demo suit UI test",
              "timedOut": false,
              "duration": 1752,
              "state": "passed",
              "speed": "slow",
              "pass": true,
              "fail": false,
              "pending": false,
              "context": null,
              "code": "await (0, _index.default)().Main().login(page, 'demo', 'demo');\nconst profileNameText = await (0, _index.default)().Overview().getProfileName(page);\nassert.deepEqual(profileNameText, 'demo');",
              "err": {},
              "uuid": "52dbef59-2b60-4158-8d51-69b406a8d14a",
              "parentUUID": "1ec28894-efcc-4dea-9829-44abb59cdfd8",
              "isHook": false,
              "skipped": false
            }
          ],
          "suites": [],
          "passes": [
            "52dbef59-2b60-4158-8d51-69b406a8d14a"
          ],
          "failures": [],
          "pending": [],
          "skipped": [],
          "duration": 1752,
          "root": false,
          "rootEmpty": false,
          "_timeout": 50000
        }
      ],
      "passes": [],
      "failures": [],
      "pending": [],
      "skipped": [],
      "duration": 0,
      "root": true,
      "rootEmpty": true,
      "_timeout": 50000
    }
  ],
  "meta": {
    "mocha": {
      "version": "9.1.3"
    },
    "mochawesome": {
      "options": {
        "quiet": false,
        "reportFilename": "mochawesome",
        "saveHtml": true,
        "saveJson": true,
        "consoleReporter": "spec",
        "useInlineDiffs": false,
        "code": true
      },
      "version": "7.0.1"
    },
    "marge": {
      "options": {
        "id": "default"
      },
      "version": "6.0.1"
    }
  }
}